…
cat("\n=== TOP NEIGHBOURHOODS BY CLUSTER (share of listings in each neighbourhood) ===\n")
```

    ## 
    ## === TOP NEIGHBOURHOODS BY CLUSTER (share of listings in each neighbourhood) ===

``` r
print(cluster_neighborhood)
```

    ## # A tibble: 23 × 5
    ##    cluster neighbourhood_cleansed      n cluster_name_short         pct
    ##      <int> <chr>                   <int> <chr>                    <dbl>
    ##  1       1 Beacon Hill               122 Standard Mid-Tier Homes   77.7
    ##  2       1 Mission Hill               41 Standard Mid-Tier Homes   77.4
    ##  3       1 Fenway                    102 Standard Mid-Tier Homes   67.1
    ##  4       1 South End                 109 Standard Mid-Tier Homes   64.9
    ##  5       1 Back Bay                  141 Standard Mid-Tier Homes   61.8
    ##  6       2 North End                  23 Amenity-Rich Large Homes  30.3
    ##  7       2 Jamaica Plain              40 Amenity-Rich Large Homes  26.3
    ##  8       2 Dorchester                 98 Amenity-Rich Large Homes  25.7
    ##  9       2 Hyde Park                  14 Amenity-Rich Large Homes  24.6
    ## 10       2 South Boston Waterfront     4 Amenity-Rich Large Homes  23.5
    ## # ℹ 13 more rows
…
